{
    "[javascript]": {
        "editor.defaultFormatter": "esbenp.prettier-vscode",
        "editor.formatOnSave": true
    },
    "css.completion.triggerPropertyValueCompletion": false,
    "editor.acceptSuggestionOnEnter": "off",
    "editor.autoClosingBrackets": "never",
    "editor.detectIndentation": true,
    "editor.fontFamily": "Fira Mono, Fira Mono for Powerline Regular, Monaco, 'Courier New', monospace",
    "editor.insertSpaces": true,
    "editor.suggest.filterGraceful": false,
    "editor.suggest.showClasses": false,
    "editor.suggest.showColors": false,
    "editor.suggest.showConstants": true,
    "editor.suggest.showConstructors": false,
    "editor.suggest.showCustomcolors": false,
    "editor.suggest.showEnumMembers": false,
    "editor.suggest.showEnums": false,
    "editor.suggest.showEvents": false,
    "editor.suggest.showFields": false,
    "editor.suggest.showFiles": true,
    "editor.suggest.showFolders": true,
    "editor.suggest.showFunctions": false,
    "editor.suggest.showIcons": false,
    "editor.suggest.showInterfaces": false,
    "editor.suggest.showKeywords": false,
    "editor.suggest.showMethods": true,
    "editor.suggest.showModules": false,
    "editor.suggest.showOperators": false,
    "editor.suggest.showProperties": false,
    "editor.suggest.showReferences": false,
    "editor.suggest.showSnippets": false,
    "editor.suggest.showStructs": false,
    "editor.suggest.showTypeParameters": false,
    "editor.suggest.showUnits": false,
    "editor.suggest.showValues": false,
    "editor.suggest.showVariables": true,
    "editor.suggest.showWords": false,
    "editor.suggest.snippetsPreventQuickSuggestions": false,
    "editor.tabSize": 2,
    "editor.wordBasedSuggestions": false,
    "emmet.triggerExpansionOnTab": true,
    "explorer.confirmDelete": false,
    "explorer.confirmDragAndDrop": false,
    "html.autoClosingTags": false,
    "html.suggest.html5": false,
    "javascript.suggest.autoImports": false,
    "javascript.suggest.completeJSDocs": false,
    "javascript.suggest.enabled": false,
    "javascript.suggest.names": false,
    "javascript.suggest.paths": true,
    "javascript.updateImportsOnFileMove.enabled": "always",
    "javascript.validate.enable": false,
    "less.completion.completePropertyWithSemicolon": false,
    "less.completion.triggerPropertyValueCompletion": false,
    "npm.fetchOnlinePackageInfo": true,
    "php.suggest.basic": false,
    "scss.completion.completePropertyWithSemicolon": false,
    "scss.completion.triggerPropertyValueCompletion": false,
    "telemetry.enableCrashReporter": false,
    "telemetry.enableTelemetry": false,
    "terminal.explorerKind": "external",
    "terminal.external.osxExec": "iTerm2.app",
    "terminal.integrated.shell.osx": "/bin/zsh",
    "typescript.suggest.enabled": false,
    "typescript.surveys.enabled": false,
    "typescript.validate.enable": false,
    "update.showReleaseNotes": false,
    "window.zoomLevel": 2,
    "workbench.startupEditor": "newUntitledFile",
    "security.workspace.trust.enabled": false
  }